Inst.;#V;Dist.;Author
LC2_6_1;19;7977,98;SAM::OPT
LC2_6_2;18;9914,1;Q
LC2_6_3;17;8718,22;Q
LC2_6_4;17;7902,66;Q
LC2_6_5;19;8047,37;BVH
LC2_6_6;18;8859,78;CLS
LC2_6_7;19;7997,96;Q
LC2_6_8;18;7579,93;RP
LC2_6_9;18;8864,29;Q
LC2_6_10;17;7965,41;Q
LR2_6_1;11;21945,3;RP
LR2_6_2;9;23903,03;CLS
LR2_6_3;7;19183,41;CLS
LR2_6_4;6;10819,45;RP
LR2_6_5;9;19411,73;CLS
LR2_6_6;7;22570,45;CLS
LR2_6_7;6;15526,81;CLS
LR2_6_8;5;10950,9;RP
LR2_6_9;8;18799,36;RP
LR2_6_10;7;17034,63;RP
LRC2_6_1;16;14782,39;EOE
LRC2_6_2;13;13958,91;EOE
LRC2_6_3;10;12741,64;EOE
LRC2_6_4;7;10536,79;EOE
LRC2_6_5;13;14886,35;EOE
LRC2_6_6;12;15315,05;EOE
LRC2_6_7;10;15032,16;EOE
LRC2_6_8;9;13836,07;EOE
LRC2_6_9;9;13464,16;EOE
LRC2_6_10;7;14141,16;EOE
